COUNTSHEET CONTROL NUMBER,LOCATION NUMBER,BIN (SHELF),MANUFACTURER ITEM NUMBER,MANUFACTURER ITEM NODASH,MANUFACTURER NAME,MANUFACTURE ITEM DESCRIPTION,PACKAGING,ON HAND QTY," ON HAND UNIT OF MEASURE (CS,BX,EA)",EXPIRED ON HAND QTY,HOSPITAL ITEM NUMBER,PURCHASE UNIT OF MEASURE,LOW UNIT OF MEASURE,EFFECTIVE UOM TO LUOM FACTOR,ON HAND UOM TO LUOM FACTOR,STOCK_YESTNO,EFFECTIVE UNIT OF MEASURE PRICE,LOUM PRICE,CONSIGNMENT FLAG,90 DIOH FLAG,VENDOR NAME, VENDOR ITEM NO,ITEM SOURCE,PRICING SOURCE,PACKAGING SOURCE,PRICE MATCH,PI ALIGN,ORIGINALHOSPITALMFGIDNODASH,ORIGINALHOSPITALVENDORITEMNODASH
ORMC1,,,20015,20015,COOK UROLOGICAL,CATHETER URETERAL 5fr OPEN ENDED TIP POLYVINYLCHLORIDE,1EA/EA,,,,,CS,EA,1,,,765.14,765.14,,,COOK UROLOGICAL,20015,ORMC,ORMC,ORMC,,,20015,20015
ORMC2,,,1550,1550,MEDI-TECH INTL CORP,FORCEP RADIAL JAW HOT BIOPSY,1EA/EA,,,,,EA,EA,1,,,200,200,,,MEDI-TECH INTL CORP,1550,ORMC,ORMC,ORMC,,,1550,1550
ORMC3,,,350-7550BC,3507550BC+J4E4:L4E4:O4G3E4:H4E4:T4,MENTOR CORPORATION,IMPLANT MAMMARY GEL RND SMOOTH 550ML MOD PROF,1EA/EA,,,,,EA,EA,1,,,850,850,,,MENTOR CORPORATION,350-7550BC,CARDINAL DATABASE,CARDINAL DATABASE,CARDINAL DATABASE,,,3507550BC,3507550BC
ORMC4,,,784001550,784001550,ZIMMER INC,STEM VERSYS BEADED MC 15X160MM,1EA/EA,,,,,EA,EA,1,,,3438,3438,,,ZIMMER INC,784001550,ORMC,ORMC,ORMC,,,784001550,784001550
ORMC5,,,20132166,20132166,ERBE USA INC,PROBE APC 2.3MM X 300CM LONG,1BX/EA,,,,,BX,EA,1,,,2305,2305,,,ERBE USA INC,20132166,ORMC,ORMC,ORMC,,,20132166,20132166
ORMC6,,,784001820,784001820,ZIMMER INC,STEM VERSYS BEADED MC 18X160MM,1EA/EA,,,,,EA,EA,1,,,3438,3438,,,ZIMMER INC,784001820,ORMC,ORMC,ORMC,,,784001820,784001820
ORMC7,,,2000,2000,EBI,FIXATOR COMPLETE SMALL,1EA/EA,,,,,EA,EA,1,,,2499,2499,,,EBI,2000,ORMC,ORMC,ORMC,,,2000,2000
ORMC8,,,909512,909512,INTEGRA LIFESCIENCES CORP,VALVE LOW FLOW W/RESERVOIR 15C,1EA/EA,,,,,EA,EA,1,,,2461,2461,,,INTEGRA LIFESCIENCES CORP,909512,ORMC,ORMC,ORMC,,,909512,909512
ORMC9,,,CL860,CL860,VNUS MEDICAL TECHNOLOGIES,CATHETER ENDOVASCULAR SNARE 60cm LONG 12mm LOOP 8fr 0.025in,1EA/EA,,,,,EA,EA,1,,,725,725,,,VNUS MEDICAL TECHNOLOGIES,CL860,ORMC,ORMC,ORMC,,,CL860,CL860
ORMC10,,,31301180S,31301180S,HOWMEDICA INC,NAIL TROCHANTERIC 11/180/130D,1EA/EA,,,,,EA,EA,1,,,1298.7,1298.7,,,HOWMEDICA INC,31301180S,ORMC,ORMC,ORMC,,,31301180S,31301180S
ORMC11,,,31201180S,31201180S,HOWMEDICA INC,KIT NAIL 011 X 180MM 120 DEGREE,1EA/EA,,,,,EA,EA,1,,,1298.7,1298.7,,,HOWMEDICA INC,31201180S,ORMC,ORMC,ORMC,,,31201180S,31201180S
ORMC12,,,FTM07060,FTM07060,BARD,STENT GRAFT FLUENCY 7X60MM,1EA/EA,,,,,EA,EA,1,,,2245,2245,,,BARD,FTM07060,ORMC,ORMC,ORMC,,,FTM07060,FTM07060
ORMC13,,,FTM08040,FTM08040,BARD,STENT GRAFT FLUENCY 8/40/80,1EA/EA,,,,,EA,EA,1,,,2245,2245,,,BARD,FTM08040,ORMC,ORMC,ORMC,,,FTM08040,FTM08040
ORMC14,,,14868,14868,SMITH & NEPHEW,TAPE ENDOBUTTON W/PASSING NEEDLE 24IN STERILE,12EA/BX,,,,,BX,EA,12,,,8290.92,690.91,,,SMITH & NEPHEW,14868,CARDINAL DATABASE,CARDINAL DATABASE,CARDINAL DATABASE,,,14868,14868
ORMC15,,,17614,17614,UNITED STATES SURGICAL CORPORATION,ROTICULATOR 55-4.8 SNGL USE STAPLER GRE W/TITANIUM STAPLES,"1EA/EA, 3EA/BX",,,,,BX,EA,1,,,632.34,632.34,,,UNITED STATES SURGICAL CORPORATION,17614,ORMC,ORMC,ORMC,,,17614,17614
ORMC16,,,30453,30453,UNITED STATES SURGICAL CORPORATION,ROTICULATOR ENDO GIA 45-2.0 SULU GRAY,6EA/BX,,,,,BX,EA,6,,,2680.0002,446.6667,,,UNITED STATES SURGICAL CORPORATION,30453,CARDINAL DATABASE,CARDINAL DATABASE,CARDINAL DATABASE,,,30453,30453
ORMC17,,,30450,30450,UNITED STATES SURGICAL CORPORATION,ROTICULATOR ENDO GIA 30-2.0 SULU GRAY SINGLE USE W/TITANIUM STAPLES,6EA/BX,,,,,BX,EA,6,,,2629.9998,438.3333,,,UNITED STATES SURGICAL CORPORATION,30450,CARDINAL DATABASE,CARDINAL DATABASE,CARDINAL DATABASE,,,30450,30450
ORMC18,,,10204,10204,BARD,PATCH HERNIA KUGEL COMPOSIX LRG CIRCLE 12CMX12CM,2EA/CS,,,,,CS,EA,2,,,1292.6667,646.33335,,,BARD,10204,ORMC,ORMC,ORMC,,,10204,10204
ORMC19,,,C14060SB,C14060SB,JOHNSON & JOHNSON,STENT 7F 80CM BILIARY 14X60,1EA/EA,,,,,EA,EA,1,,,1483.25,1483.25,,,JOHNSON & JOHNSON,C14060SB,ORMC,ORMC,ORMC,,,C14060SB,C14060SB
ORMC20,,,PCB502090,PCB502090,BOSTON SCIENTIFIC CORP/NAMIC TECH,CATH BALLOON PCB 5MM/2CM/90CM,1EA/EA,,,,,EA,EA,1,,,800,800,,,BOSTON SCIENTIFIC CORP/NAMIC TECH,PCB502090,ORMC,ORMC,ORMC,,,PCB502090,PCB502090
ORMC21,,,30456,30456,UNITED STATES SURGICAL CORPORATION,ROTICULATOR ENDO GIA 45-4.8 SULU BLUE,6EA/BX,,,,,BX,EA,6,,,1770.6,295.1,,,UNITED STATES SURGICAL CORPORATION,30456,CARDINAL DATABASE,CARDINAL DATABASE,CARDINAL DATABASE,,,30456,30456
ORMC22,,,30459,30459,UNITED STATES SURGICAL CORPORATION,STAPLER ENDO CARTRIDGE GIA ROTICULATOR 60-4.8 TITANIUM DISPO,6EA/BX,,,,,BX,EA,6,,,1387.9,231.3166667,,,UNITED STATES SURGICAL CORPORATION,30459,CARDINAL DATABASE,CARDINAL DATABASE,CARDINAL DATABASE,,,30459,30459
ORMC23,,,K17A,K17A,KYPHON INC,KYPHX INFLATABLE BONE TAMP10/3,1EA/EA,,,,,EA,EA,1,,,1154,1154,,,KYPHON INC,K17A,ORMC,ORMC,ORMC,,,K17A,K17A
ORMC24,,,KPT1003,KPT1003,KYPHON INC,KYPHOPAK FIRST FRACTURE 10/3,1EA/EA,,,,,EA,EA,1,,,3453,3453,,,KYPHON INC,KPT1003,ORMC,ORMC,ORMC,,,KPT1003,KPT1003
ORMC25,,,S220GH,S220GH,BIOSPHERE MEDICAL,SYRINGE EMBOGOLD 100-300,1BX/EA,,,,,BX,EA,1,,,1150,1150,,,BIOSPHERE MEDICAL,S220GH,ORMC,ORMC,ORMC,,,S220GH,S220GH
ORMC26,,,7663,7663,TYCO HEALTHCARE - KENDALL,PAD TELFA 3 X 8IN STER ANTIMICROBIAL,1EA/EA,,,,,EA,EA,1,,,163.59,163.59,,,TYCO HEALTHCARE - KENDALL,7663,CARDINAL DATABASE,CARDINAL DATABASE,CARDINAL DATABASE,,,7663,7663
ORMC27,,,FTM10060,FTM10060,BARD,STENT GRAFT FLUENCY 10X60MM,1EA/EA,,,,,EA,EA,1,,,2245,2245,,,BARD,FTM10060,ORMC,ORMC,ORMC,,,FTM10060,FTM10060
ORMC28,,,30805,30805,UNITED STATES SURGICAL CORPORATION,LOADING UNIT MULTIFIRE ENDO GIA 30-2.5,1EA/EA,,,,,BX,EA,1,,,1872,1872,,,UNITED STATES SURGICAL CORPORATION,30805,CARDINAL DATABASE,CARDINAL DATABASE,CARDINAL DATABASE,,,30805,30805
ORMC29,,,PG1860BAX,PG1860BAX,JOHNSON & JOHNSON,STENT BILIARY GENESIS 6MM X 18,1EA/EA,,,,,EA,EA,1,,,1283.25,1283.25,,,JOHNSON & JOHNSON,PG1860BAX,ORMC,ORMC,ORMC,,,PG1860BAX,PG1860BAX
ORMC30,,,G33017,G33017,COOK INC,FILTER GUNTHER TULIP VENACAVA,1EA/EA,,,,,EA,EA,1,,,1062.15,1062.15,,,COOK INC,G33017,ORMC,ORMC,ORMC,,,G33017,G33017
ORMC31,,,3542514,3542514,MENTOR CORPORATION,IMPLANT MAMMARY SALINE POST SPECTRUM VLV CONTOUR TEXTURED 550ml,1EA/EA,,,,,EA,EA,1,,,1050,1050,,,MENTOR CORPORATION,3542514,ORMC,ORMC,ORMC,,,3542514,3542514
ORMC32,,,8065750157,8065750157,ALCON LABORATORIES INC,VITRECTOMY PAK INFINITI ANTERIOR,6EA/BX,,,,,BX,EA,6,,,894,149,,,ALCON LABORATORIES INC,8065750157,ORMC,ORMC,ORMC,,,8065750157,8065750157
ORMC33,,,4280,4280,SMITHS MEDICAL ASD,NEEDLE HYPODERMIC 18GX1-1/ 2IN PRO NEEDLE ATTACHED,"100EA/BX, 8BX/CS",,,,45696,EA,EA,1,,,121.74,121.74,,,SMITHS MEDICAL ASD,4280,CUSTOMER FILE,CUSTOMER FILE,CUSTOMER FILE,,,4280,4280
ORMC34,,,EEA25,EEA25,CARDINAL HEALTH,STAPLER DST EEA 25MM,3EA/BX,,,,,BX,EA,3,,,865.2,288.4,,,CARDINAL HEALTH,EEA25,ORMC,ORMC,ORMC,,,EEA25,EEA25
ORMC35,,,30418,30418,UNITED STATES SURGICAL CORPORATION,LOADING UNIT ENDO GIA II 30-2.5 SULU SINGLE USE WHITE W/TITANIUM STAPLES,6EA/BX,,,,,BX,EA,6,,,1500,250,,,UNITED STATES SURGICAL CORPORATION,30418,CARDINAL DATABASE,CARDINAL DATABASE,CARDINAL DATABASE,,,30418,30418
ORMC36,,,S620GH,S620GH,BIOSPHERE MEDICAL,SYRINGE EMBOSPHERE 500-700 2ML,1BX/EA,,,,,BX,EA,1,,,1200,1200,,,BIOSPHERE MEDICAL,S620GH,ORMC,ORMC,ORMC,,,S620GH,S620GH
ORMC37,,,NS2000,NS2000,CYTYC CORPORATION,DEVICE NOVASURE DISPOSABLE,3EA/PK,,,,,PK,EA,3,,,2985,995,,,CYTYC CORPORATION,NS2000,ORMC,ORMC,ORMC,,,NS2000,NS2000
ORMC38,,,85147,85147,BOSTON SCIENTIFIC CORP/NAMIC TECH,GRAFT VASCULAR BIFURCATED KNITTED DOUBLE POLYESTER BOVINE COLLAGEN COATED 14mmx7mm 40cm,1EA/EA,,,,,EA,EA,1,,,662.3156,662.3156,,,BOSTON SCIENTIFIC CORP/NAMIC TECH,85147,ORMC,ORMC,ORMC,,,85147,85147
ORMC39,,,596401751,596401751,ZIMMER INC,FEMORAL KNEE LPS-FLEX G-LT,1EA/EA,,,,,EA,EA,1,,,2971,2971,,,ZIMMER INC,596401751,ORMC,ORMC,ORMC,,,596401751,596401751
